03.mtcars & mpg
…
GGally::ggcorr()

상관계수도 자동으로 계산

mpg

# A tibble: 234 × 11
   manufacturer model      displ  year   cyl trans drv     cty   hwy fl    class
   <chr>        <chr>      <dbl> <int> <int> <chr> <chr> <int> <int> <chr> <chr>
 1 audi         a4           1.8  1999     4 auto… f        18    29 p     comp…
 2 audi         a4           1.8  1999     4 manu… f        21    29 p     comp…
 3 audi         a4           2    2008     4 manu… f        20    31 p     comp…
 4 audi         a4           2    2008     4 auto… f        21    30 p     comp…
 5 audi         a4           2.8  1999     6 auto… f        16    26 p     comp…
 6 audi         a4           2.8  1999     6 manu… f        18    26 p     comp…
 7 audi         a4           3.1  2008     6 auto… f        18    27 p     comp…
 8 audi         a4 quattro   1.8  1999     4 manu… 4        18    26 p     comp…
 9 audi         a4 quattro   1.8  1999     4 auto… 4        16    25 p     comp…
10 audi         a4 quattro   2    2008     4 manu… 4        20    28 p     comp…
# ℹ 224 more rows
…
Republic of Korea (Google)

South Korea (Wikipedia)

Korea, Rep. (Gap minder)

KOR (IOC)

Korea Republic (FIFA)

library(gapminder)
gapminder

# A tibble: 1,704 × 6
   country     continent  year lifeExp      pop gdpPercap
   <fct>       <fct>     <int>   <dbl>    <int>     <dbl>
 1 Afghanistan Asia       1952    28.8  8425333      779.
 2 Afghanistan Asia       1957    30.3  9240934      821.
 3 Afghanistan Asia       1962    32.0 10267083      853.
 4 Afghanistan Asia       1967    34.0 11537966      836.
 5 Afghanistan Asia       1972    36.1 13079460      740.
 6 Afghanistan Asia       1977    38.4 14880372      786.
 7 Afghanistan Asia       1982    39.9 12881816      978.
 8 Afghanistan Asia       1987    40.8 13867957      852.
 9 Afghanistan Asia       1992    41.7 16317921      649.
10 Afghanistan Asia       1997    41.8 22227415      635.
# ℹ 1,694 more rows
…
[1] 24

str_detect

str_detect(gapminder$country, 'orea') |> sum()

[1] 24

filter & str_detect

gapminder |> 
  filter(str_detect(gapminder$country, 'orea') > 0) 

# A tibble: 24 × 6
   country          continent  year lifeExp      pop gdpPercap
   <fct>            <fct>     <int>   <dbl>    <int>     <dbl>
 1 Korea, Dem. Rep. Asia       1952    50.1  8865488     1088.
 2 Korea, Dem. Rep. Asia       1957    54.1  9411381     1571.
 3 Korea, Dem. Rep. Asia       1962    56.7 10917494     1622.
 4 Korea, Dem. Rep. Asia       1967    59.9 12617009     2144.
 5 Korea, Dem. Rep. Asia       1972    64.0 14781241     3702.
 6 Korea, Dem. Rep. Asia       1977    67.2 16325320     4106.
 7 Korea, Dem. Rep. Asia       1982    69.1 17647518     4107.
 8 Korea, Dem. Rep. Asia       1987    70.6 19067554     4106.
 9 Korea, Dem. Rep. Asia       1992    70.0 20711375     3726.
10 Korea, Dem. Rep. Asia       1997    67.7 21585105     1691.
# ℹ 14 more rows
