03.babynames
…
When you click the Render button a document will be generated that includes both content and the output of embedded code. You can embed code like this:

library(tidyverse)
library(babynames)
#remotes::install_github("ricardo-bion/ggradar")
library(ggradar)
library(GGally)

You can add options to executable code like this

#| 옵션

{r } 청크 바로 밑에 작성

# A tibble: 38 × 2
   model                  n
   <chr>              <int>
 1 4runner 4wd            6
 2 a4                     7
 3 a4 quattro             8
 4 a6 quattro             3
 5 altima                 6
 6 c1500 suburban 2wd     5
 7 camry                  7
 8 camry solara           7
 9 caravan 2wd           11
10 civic                  9
# ℹ 28 more rows
…
CHECK

mtcars |> 
  rownames_to_column('cars') |> 
  filter(cars %in% c("Maserati Bora", 'Volvo 142E'))

           cars  mpg cyl disp  hp drat   wt qsec vs am gear carb
1 Maserati Bora 15.0   8  301 335 3.54 3.57 14.6  0  1    5    8
2    Volvo 142E 21.4   4  121 109 4.11 2.78 18.6  1  1    4    2

MPG

mpg

# A tibble: 234 × 11
   manufacturer model      displ  year   cyl trans drv     cty   hwy fl    class
   <chr>        <chr>      <dbl> <int> <int> <chr> <chr> <int> <int> <chr> <chr>
 1 audi         a4           1.8  1999     4 auto… f        18    29 p     comp…
 2 audi         a4           1.8  1999     4 manu… f        21    29 p     comp…
 3 audi         a4           2    2008     4 manu… f        20    31 p     comp…
 4 audi         a4           2    2008     4 auto… f        21    30 p     comp…
 5 audi         a4           2.8  1999     6 auto… f        16    26 p     comp…
 6 audi         a4           2.8  1999     6 manu… f        18    26 p     comp…
 7 audi         a4           3.1  2008     6 auto… f        18    27 p     comp…
 8 audi         a4 quattro   1.8  1999     4 manu… 4        18    26 p     comp…
 9 audi         a4 quattro   1.8  1999     4 auto… 4        16    25 p     comp…
10 audi         a4 quattro   2    2008     4 manu… 4        20    28 p     comp…
# ℹ 224 more rows
…
