(점프) 데이터 스터디
…
2. group_by(), reframe()

제조사별 평균 고속도로 연비를 계산하시오 
 고속도로 연비는 소수
첫째자리에서 반올림하시오 - group_by(), reframe(), mean(), hwy

## # A tibble: 128 × 2
##    make            avg_hwy
##    <chr>             <dbl>
##  1 Tesla              93.3
##  2 CODA Automotive    68  
##  3 BYD                64.7
##  4 Azure Dynamics     62  
##  5 smart              54.3
##  6 Fiat               44  
##  7 MINI               33.3
##  8 Daihatsu           32.5
##  9 Scion              32.0
## 10 Red Shift Ltd.     31  
## # ℹ 118 more rows
…
10. NA 조회

trans의 종류는 총 몇개인가?
 - 힌트 없음

## # A tibble: 47 × 2
##    trans                                n
##    <chr>                            <int>
##  1 Automatic 4-spd                  10771
##  2 Manual 5-spd                      7858
##  3 Automatic 3-spd                   2720
##  4 Automatic 5-spd                   2158
##  5 Manual 6-spd                      2067
##  6 Automatic (S6)                    1946
##  7 Manual 4-spd                      1368
##  8 Automatic 6-spd                   1135
##  9 Automatic (S5)                     816
## 10 Automatic (variable gear ratios)   554
## # ℹ 37 more rows
…
